{
    "exercice7be_vendor": {
        "column": {
            "vendor_id": true,
            "name": true
        },
        "constraint": {
            "PRIMARY": true
        }
    },
    "exercice7be_vendor2product": {
        "column": {
            "vendor_id": true,
            "product_id": true
        },
        "constraint": {
            "PRIMARY": true,
            "EXERCICE7BE_VENDOR2PRD_VENDOR_ID_EXERCICE7BE_VENDOR_VENDOR_ID": true,
            "EXERCICE7BE_VENDOR2PRD_PRD_ID_CAT_PRD_ENTT_ENTT_ID": true
        }
    }
}